<define-tag pagetitle>DLA-2536-1 libsdl2</define-tag>
<define-tag report_date>2021-1-30</define-tag>
<define-tag secrefs>CVE-2019-7575 CVE-2019-7577 CVE-2019-7578 CVE-2019-7635 CVE-2019-7636 CVE-2019-7638 CVE-2019-13616 CVE-2020-14409 CVE-2020-14410</define-tag>
<define-tag packages>libsdl2</define-tag>
<define-tag isvulnerable>yes</define-tag>
<define-tag fixed>yes</define-tag>
<define-tag fixed-section>no</define-tag>

#use wml::debian::security

