<define-tag pagetitle>DLA-2612-1 leptonlib</define-tag>
<define-tag report_date>2021-3-31</define-tag>
<define-tag secrefs>CVE-2020-36277 CVE-2020-36278 CVE-2020-36279 CVE-2020-36281</define-tag>
<define-tag packages>leptonlib</define-tag>
<define-tag isvulnerable>yes</define-tag>
<define-tag fixed>yes</define-tag>
<define-tag fixed-section>no</define-tag>

#use wml::debian::security

