<define-tag pagetitle>DLA-2558-1 xterm</define-tag>
<define-tag report_date>2021-02-13</define-tag>
<define-tag secrefs>CVE-2021-27135 Bug#982439</define-tag>
<define-tag packages>xterm</define-tag>
<define-tag isvulnerable>yes</define-tag>
<define-tag fixed>yes</define-tag>
<define-tag fixed-section>no</define-tag>

#use wml::debian::security

