<define-tag pagetitle>DLA-2379-1 mediawiki</define-tag>
<define-tag report_date>2020-09-25</define-tag>
<define-tag secrefs>CVE-2020-25813 CVE-2020-25814 CVE-2020-25827 CVE-2020-25828</define-tag>
<define-tag packages>mediawiki</define-tag>
<define-tag isvulnerable>yes</define-tag>
<define-tag fixed>yes</define-tag>
<define-tag fixed-section>no</define-tag>

#use wml::debian::security

