<define-tag pagetitle>DSA-4582-1 davical</define-tag>
<define-tag report_date>2019-12-13</define-tag>
<define-tag secrefs>CVE-2019-18345 CVE-2019-18346 CVE-2019-18347 Bug#946343</define-tag>
<define-tag packages>davical</define-tag>
<define-tag isvulnerable>yes</define-tag>
<define-tag fixed>yes</define-tag>
<define-tag fixed-section>no</define-tag>

#use wml::debian::security



</dl>
