<define-tag pagetitle>DLA-722-1 irssi</define-tag>
<define-tag report_date>2016-11-25</define-tag>
<define-tag secrefs>CVE-2016-7553 Bug#838762</define-tag>
<define-tag packages>irssi</define-tag>
<define-tag isvulnerable>yes</define-tag>
<define-tag fixed>yes</define-tag>
<define-tag fixed-section>no</define-tag>

#use wml::debian::security

